{
  "output": "./output",
  "helpers": {
    "WebDriverIO": {
      "url": "http://claim.skycop.com/",
      "browser": "chrome"
    },
    "WebDriverIOHelper": {
      "require": "./webdriveriohelper_helper.js"
    }
  },
  "include": {
    "I": "./steps_file.js"
  },
  "mocha": {},
  "bootstrap": false,
  "teardown": null,
  "hooks": [],
  "tests": "./tests/*_test.js",
  "timeout": 10000,
  "name": "skycop"
}